Behind the numbers: comparing extreme poverty and GDP per capita by world regions
…
# combine
world <- gdp |> 
  full_join(poverty, by = c("YEAR", "region")) |> 
  mutate(GDP = str_remove_all(GDP, pattern = "\\s")) |> 
  mutate(GDP = as.numeric(GDP)) 

world

# A tibble: 221 × 4
    YEAR region                         GDP poverty
   <dbl> <chr>                        <dbl>   <dbl>
 1  1820 Western Europe                2307      73
 2  1820 Eastern Europe                 818      91
 3  1820 Western Offshoots             2513      55
 4  1820 Latin America and Carribean    953      NA
 5  1820 East Asia                     1089      78
 6  1820 South and Southeast Asia)      929      NA
 7  1820 Middle East and North Africa   974      75
 8  1820 Sub-Saharan Africa             800      91
 9  1820 World                         1174      NA
10  1830 Western Europe                2384      NA
# ℹ 211 more rows
…
world <- world_supplemented

world |>
  filter(region == "Global Average")

# A tibble: 21 × 4
    YEAR region           GDP poverty
   <dbl> <chr>          <dbl>   <dbl>
 1  1820 Global Average 1174     77.1
 2  1830 Global Average 1663    NaN  
 3  1840 Global Average 1744.   NaN  
 4  1850 Global Average 1225     72  
 5  1860 Global Average 2548.   NaN  
 6  1870 Global Average 1498     69.1
 7  1880 Global Average 3830    NaN  
 8  1890 Global Average 3078.   NaN  
 9  1900 Global Average 2212     57.4
10  1910 Global Average 4022    NaN  
# ℹ 11 more rows
…
