Data visualization | MSc CSS: Social Dissent in China by ‘The Economist’: How Frequent are Protests in the Country?
…
Before combining both data frames, a few transformations have to be done. First, the “code” column is changed to numeric value and then the “count” function is used to score and group the cases of dissent by province. As a result we have only two columns left related to each object: the province with an ID code assigned to it and the number of cases in each province.

china_dissent <- chinacsv %>%
  select(code) %>% 
  count(code) 
china_dissent

# A tibble: 28 × 2
   code             n
   <chr>        <int>
 1 Anhui            9
 2 Fujian          21
 3 Gansu            8
 4 Guangdong       83
 5 Guangxi         31
 6 Guizhou          8
 7 Hainan           8
 8 Hebei           91
 9 Heilongjiang    14
10 Henan           99
# … with 18 more rows
…
china_data_n <- china_data %>% 
      group_by(reason_dissent,Date) %>%
      count() %>%
      filter(Date >="2022-09-01") %>% 
      group_by(reason_dissent) %>% 
      mutate(cumulative_n = cumsum(n)) %>% 
      transmute(
          reason_dissent = factor (reason_dissent, levels = x),
          cumulative_n,
          Date)
china_data_n

# A tibble: 214 × 3
# Groups:   reason_dissent [10]
   reason_dissent    cumulative_n Date      
   <fct>                    <int> <date>    
 1 Building disputes            1 2022-09-03
 2 Building disputes            3 2022-09-05
 3 Building disputes            4 2022-09-17
 4 Building disputes            7 2022-09-18
 5 Building disputes            8 2022-09-24
 6 Building disputes            9 2022-09-28
 7 Building disputes           10 2022-10-02
 8 Building disputes           12 2022-10-09
 9 Building disputes           13 2022-10-12
10 Building disputes           14 2022-10-26
# … with 204 more rows
…
