Data Visualization | MSc CSS: Energy Production between 2004 and 2014
…
variation_2004_2014  <- read_excel(electricity_excel, sheet = "Variable_9460") |>
  select("Nombre unidad territorial", "Valor del dato") |>
  rename(Province = "Nombre unidad territorial", MWh = "Valor del dato") |>
  mutate(Type = "Variación 2004 - 2014")

electricity_ <- bind_rows(
  hydro_2014, wind_power_2014, solar_2014, rw_thermal_2014, 
  carbon_and_gas_2014, nuclear_2014, total_2014, variation_2004_2014)
electricity_

# A tibble: 416 × 3
   Province              MWh Type      
   <chr>               <dbl> <chr>     
 1 Araba/Álava       151127. Hidráulica
 2 Albacete          313163. Hidráulica
 3 Alacant/Alicante    2631. Hidráulica
 4 Almería            48040. Hidráulica
 5 Ávila             158772. Hidráulica
 6 Badajoz           204660  Hidráulica
 7 Illes Balears          0  Hidráulica
 8 Barcelona         359347. Hidráulica
 9 Burgos            152779. Hidráulica
10 Cáceres          2912760. Hidráulica
# ℹ 406 more rows
…
electricity <- category_variation |> left_join(electricity_, by = c("Province"))
electricity

# A tibble: 416 × 4
   Province    Energy_Variation      MWh Type                         
   <chr>       <fct>               <dbl> <chr>                        
 1 Araba/Álava 100,1 - 150,0     151127. Hidráulica                   
 2 Araba/Álava 100,1 - 150,0     257584. Eólica                       
 3 Araba/Álava 100,1 - 150,0      17653. Solar                        
 4 Araba/Álava 100,1 - 150,0       7182. Térmica renovable y otras    
 5 Araba/Álava 100,1 - 150,0     359081  Carbón, fuelgas, ciclo combi…
 6 Araba/Álava 100,1 - 150,0          0  Nuclear                      
 7 Araba/Álava 100,1 - 150,0     792627. Total                        
 8 Araba/Álava 100,1 - 150,0        114. Variación 2004 - 2014        
 9 Albacete    200,1 - 300,0     313163. Hidráulica                   
10 Albacete    200,1 - 300,0    4513126. Eólica                       
# ℹ 406 more rows
…
