Nation-Wide Blackout in Spain
…
In the end, full_data represents the energy production and storage. It consists of three variables:

Hora <- The date and time of the reading

Type <- The type of energy being generated.

Rating <- The rating of the type of energy.

“Demanda” has the date and time of the energy demand, and the variable “real” represents the real demand for energy in megawatts.

full_data

# A tibble: 8,303 × 3
   Hora                Type                    Rating
   <dttm>              <fct>                    <dbl>
 1 2025-04-27 21:00:00 Marruecos.importación        0
 2 2025-04-27 21:00:00 Portugal.importación      1724
 3 2025-04-27 21:00:00 Francia.importación          0
 4 2025-04-27 21:00:00 Térmica.renovable          531
 5 2025-04-27 21:00:00 Solar.térmica              866
 6 2025-04-27 21:00:00 Solar.fotovoltaica         340
 7 2025-04-27 21:00:00 Eólica                    7327
 8 2025-04-27 21:00:00 Cogeneración.y.residuos   1643
 9 2025-04-27 21:00:00 Turbina.de.gas              95
10 2025-04-27 21:00:00 Motores.diésel             336
# ℹ 8,293 more rows
…
