Social Media Use in 2021
…
Plot construction

Initial settings, getting the data

First of all, we should load into R the necessary libraries to develop our work. In our case, we need the following three:

library(tidyverse) #To use the pipe operator and filter data
library(ggplot2) #To produce the graph
library(showtext) #To include alternative fonts

Once we prepared our environment, it’s time for us to work with the data. In this case, the Pew Research Center uploaded a PDF file with the specific questions and answers used for the report, from which we created a CSV file. We anticipated our future needs and introduced the different variables in a long format, as we would later need it to develop the plot.

read_delim("Data/database.csv")

# A tibble: 53 × 3
    Year `Social media`   Use
   <dbl> <chr>          <dbl>
 1  2012 Twitter           13
 2  2013 Twitter           14
 3  2014 Twitter           19
 4  2015 Twitter           20
 5  2016 Twitter           21
 6  2018 Twitter           24
 7  2019 Twitter           22
 8  2021 Twitter           23
 9  2012 Instagram          9
10  2013 Instagram         14
# … with 43 more rows
…
