El crecimiento de la industria petrolera
…
panel_g <- 
  panel_f |> 
  arrange(Country, Region) 

# Prueba haciendo que Rusia sea un solo país

panel_g1 <- 
  panel_g |> 
  arrange(Country, Region) |> 
  mutate(Country = if_else(Country == "USSR", "Russian Federation", Country))  

panel_g1 |> distinct(Country, Region)

# A tibble: 24 × 2
   Country            Region            
   <chr>              <fct>             
 1 Australia          Oceania           
 2 Indonesia          Asia              
 3 China              Asia              
 4 Other Asia         Asia              
 5 United Kingdom     Europe            
 6 Norway             Europe            
 7 Other Europe       Europe            
 8 Russian Federation CIS               
 9 Other CIS          CIS               
10 Brazil             S. & Cent. America
# ℹ 14 more rows
…
panel_g |> 
  filter(Year == 2018) |> 
  summarise(total_oilprod = sum(oilprod_kbd))

# A tibble: 1 × 1
  total_oilprod
          <dbl>
1        93143.

panel_g |> 
  filter(Country == c("USSR", "US")) |> 
  group_by(Year) 

# A tibble: 39 × 4
# Groups:   Year [39]
   Country  Year Region oilprod_kbd
   <fct>   <dbl> <fct>        <dbl>
 1 USSR     1965 CIS          4858.
 2 USSR     1967 CIS          5762 
 3 USSR     1969 CIS          6566 
 4 USSR     1971 CIS          7610.
 5 USSR     1973 CIS          8664.
 6 USSR     1975 CIS          9916.
 7 USSR     1977 CIS         11010.
 8 USSR     1979 CIS         11805.
 9 USSR     1981 CIS         12260.
10 USSR     1983 CIS         12403.
# ℹ 29 more rows
…
