Is economic growth in your country still costing natural resources?
…
In this project, I first loaded the following R packages using library() to support data processing and visualization tasks.

It is worth noting that the interactive charts in this project primarily rely on tools such as Shiny and Plotly to achieve dynamic effects. However, since this project is presented in R Markdown format, the interactive features cannot be directly displayed in a static document. Therefore, I will provide relevant links in later presentations to allow further exploration and interaction with the dynamic visualizations.

goal_12 <- read_delim(
  file = 
    "~/Desktop/dataviz/projects/2024/100536210/goal12.cwon.csv", delim = ";",
  col_names = TRUE)
goal_12

# A tibble: 3,557 × 9
   code  countryname  year   nca   gdp growth_gdp growth_nca
   <chr> <chr>       <dbl> <dbl> <dbl>      <dbl>      <dbl>
 1 ALB   Albania      1995 6715. 2666.       0          0   
 2 ALB   Albania      1996 6421. 2980.      11.8       -4.37
 3 ALB   Albania      1997 5512. 2718.       1.94     -17.9 
 4 ALB   Albania      1998 4767. 3021.      13.3      -29.0 
 5 ALB   Albania      1999 4827. 3472.      30.2      -28.1 
 6 ALB   Albania      2000 4930. 3861.      44.8      -26.6 
 7 ALB   Albania      2001 5075. 4300.      61.3      -24.4 
 8 ALB   Albania      2002 5113. 4661.      74.8      -23.9 
 9 ALB   Albania      2003 5198. 5000.      87.5      -22.6 
10 ALB   Albania      2004 5239. 5428.     104.       -22.0 
# ℹ 3,547 more rows
# ℹ 2 more variables: loggrowth_gdp <dbl>, loggrowth_nca <dbl>
…
    "Upper Middle Income", "Low Income", "High Income",
    "Lower Middle Income", "High Income", "Lower Middle Income",
    "Low Income", "Lower Middle Income", "Upper Middle Income",
    "High Income", "High Income", "High Income",
    "Lower Middle Income", "Low Income", "Low Income",
    "Upper Middle Income", "Lower Middle Income", "Upper Middle Income",
    "High Income", "Lower Middle Income", "Upper Middle Income",
    "Lower Middle Income", "Low Income", "Lower Middle Income",
    "Upper Middle Income", "High Income", "High Income",
    "Lower Middle Income", "Lower Middle Income", "Low Income",
    "Upper Middle Income", "Low Income", "Lower Middle Income"
  ))
income_level

# A tibble: 150 × 2
   countryname          income_level       
   <chr>                <chr>              
 1 Albania              Upper Middle Income
 2 United Arab Emirates High Income        
 3 Argentina            Upper Middle Income
 4 Armenia              Upper Middle Income
 5 Australia            High Income        
 6 Austria              High Income        
 7 Azerbaijan           Upper Middle Income
 8 Burundi              Low Income         
 9 Belgium              High Income        
10 Benin                Low Income         
# ℹ 140 more rows
…
