Worldwide Top 10 Listened Songs in Spotify
…
Here, I noticed that I needed to create the columns of my variable by pivoting the dataframe so I obtain columns for the date, the ranking position and the name of the song:

#Pivot long the Song
spoti <- spoti %>% 
  tidyr::pivot_longer(-Date,
               names_to = "Song",
               values_to = "Ranking")
spoti

# A tibble: 294 × 3
   Date   Song                                  Ranking
   <chr>  <chr>                                   <dbl>
 1 06-jul As It Was                                   2
 2 06-jul Despechá                                   NA
 3 06-jul Me Porto Bonito                             4
 4 06-jul Pink Venom                                 NA
 5 06-jul Quevedo: Bzrp Music Sessions, Vol. 52      NA
 6 06-jul Tití Me Preguntó                            5
 7 07-jul As It Was                                   2
 8 07-jul Despechá                                   NA
 9 07-jul Me Porto Bonito                             4
10 07-jul Pink Venom                                 NA
# … with 284 more rows

Then, I wanted the Date column to be date type so it’s easier to handle.

#Transform Date column into "date type" 
spoti$Date <- paste(spoti$Date, "2022",sep="-")
spoti$Date<-  gsub("jul",07,spoti$Date)
spoti$Date<-  gsub("ago",08,spoti$Date)
spoti$Date <- dmy(spoti$Date)
spoti

# A tibble: 294 × 3
   Date       Song                                  Ranking
   <date>     <chr>                                   <dbl>
 1 2022-07-06 As It Was                                   2
 2 2022-07-06 Despechá                                   NA
 3 2022-07-06 Me Porto Bonito                             4
 4 2022-07-06 Pink Venom                                 NA
 5 2022-07-06 Quevedo: Bzrp Music Sessions, Vol. 52      NA
 6 2022-07-06 Tití Me Preguntó                            5
 7 2022-07-07 As It Was                                   2
 8 2022-07-07 Despechá                                   NA
 9 2022-07-07 Me Porto Bonito                             4
10 2022-07-07 Pink Venom                                 NA
# … with 284 more rows
…
At first, I considered that I could add more information as the color visualization mark was almost not giving information apart of which song is the spanish one. As I didn’t have the resources to get more data from Spotify.

spotig <- spoti %>% 
  mutate("Genre" = case_when(
    endsWith(Song, "52") ~ "Pop",
    endsWith(Song, "As It Was") ~ "Pop",
    endsWith(Song, "Pink Venom") ~ "K-Pop",
    endsWith(Song, "Me Porto Bonito") ~ "Reggaeton/Latino",
    endsWith(Song, "Tití Me Preguntó") ~ "Reggaeton/Latino",
    endsWith(Song, "Despechá") ~ "Reggaeton/Latino"
  ))
spotig

# A tibble: 294 × 4
   Date       Song                                  Ranking Genre     
   <date>     <chr>                                   <dbl> <chr>     
 1 2022-07-06 As It Was                                   2 Pop       
 2 2022-07-06 Despechá                                   NA Reggaeton…
 3 2022-07-06 Me Porto Bonito                             4 Reggaeton…
 4 2022-07-06 Pink Venom                                 NA K-Pop     
 5 2022-07-06 Quevedo: Bzrp Music Sessions, Vol. 52      NA Pop       
 6 2022-07-06 Tití Me Preguntó                            5 Reggaeton…
 7 2022-07-07 As It Was                                   2 Pop       
 8 2022-07-07 Despechá                                   NA Reggaeton…
 9 2022-07-07 Me Porto Bonito                             4 Reggaeton…
10 2022-07-07 Pink Venom                                 NA K-Pop     
# … with 284 more rows
…
