Public Trust in Government
…
The database provides information on the trust of citizens of different ethnicities and races on specific dates in the history of the United States. The trust of citizens is represented as a number between 0 and 100, with 0 being no trust and 100 being total trust. First, we have had to transform the “Date” column, which provides the different dates, into a specific format, which will facilitate the handling and analysis of temporal data.

data <- read_csv("database.csv")
data.df <- data.frame(data[1:150,1:6])
data.df$Date <- as.Date(data.df$Date, format = "%m/%d/%Y")

The second step we have done in order to be able to treat the data correctly and to be able to analyse it, is to convert the data with tidyverse, in order to be able to clean it from NA. The reason for choosing Tidyverse is that it allows us to omit missing values without losing valuable information.

data.df <- data.df |>
  tidyr::pivot_longer(c(Hispanic, White, Asian, Black)) |> 
  na.omit()
data.df

# A tibble: 283 × 4
   Date       .     name     value
   <date>     <chr> <chr>    <dbl>
 1 2023-06-11 PEW   Hispanic    23
 2 2023-06-11 PEW   White       13
 3 2023-06-11 PEW   Asian       23
 4 2023-06-11 PEW   Black       21
 5 2022-05-01 PEW   Hispanic    29
 6 2022-05-01 PEW   White       16
 7 2022-05-01 PEW   Asian       37
 8 2022-05-01 PEW   Black       24
 9 2021-04-11 PEW   Hispanic    36
10 2021-04-11 PEW   White       18
# ℹ 273 more rows
…
trust <- read_csv("chart-export-cda90f7d-1ac9-45fd-99e1-ec61f808868b.csv")
trust.df <- data.frame(trust[1:150,1:4])

data.df$Trust.Average <-trust.df$Trust.average
data.df$Date <- as.Date(data.df$Date, format = "%m/%d/%Y")

Once the variable has been added, we clean the NA data again with tidyverse. In addition, we have also named a new vector, which collects the names of the ethnicities, which we will use and explain later.

data.df <- data.df |>
  tidyr::pivot_longer(c(Hispanic, White, Asian, Black)) |> 
  na.omit()
data.df

# A tibble: 283 × 5
   Date       .     Trust.Average name     value
   <date>     <chr>         <dbl> <chr>    <dbl>
 1 2023-06-11 PEW              16 Hispanic    23
 2 2023-06-11 PEW              16 White       13
 3 2023-06-11 PEW              16 Asian       23
 4 2023-06-11 PEW              16 Black       21
 5 2022-05-01 PEW              20 Hispanic    29
 6 2022-05-01 PEW              20 White       16
 7 2022-05-01 PEW              20 Asian       37
 8 2022-05-01 PEW              20 Black       24
 9 2021-04-11 PEW              21 Hispanic    36
10 2021-04-11 PEW              21 White       18
# ℹ 273 more rows
…
